…
  - `victim_race`: included “unknown” in the `non-white` category.  
  - `victim_sex`: I have three options to deal with missing data:
      - filter them before the analysis  
      - randomly assign them `Male` or `Female`  
      - because we only need the coefficient of non-white compared to
        white, I can just leave it alone for now

<!-- end list -->

``` r
homicide %>% 
  filter(victim_sex == 'Unknown')
```

    ## # A tibble: 560 x 14
    ##    uid      reported_date victim_last  victim_first victim_race victim_age
    ##    <chr>            <int> <chr>        <chr>        <fct>            <dbl>
    ##  1 Alb-000…      20120428 VALERIO      MAY          non-white           NA
    ##  2 Alb-000…      20160205 PURVIS       GEORGE JR.   non-white           NA
    ##  3 Alb-000…      20150211 FOSKEY       PARKER       non-white           NA
    ##  4 Alb-000…      20150301 ESTRADA-GAL… CARLA        non-white           NA
    ##  5 Alb-000…      20150506 GIVENS       COREY        non-white           31
    ##  6 Alb-000…      20150524 RAMOS-CARAV… GERARDO      non-white           NA
    ##  7 Alb-000…      20150524 RASCHICK     KEVIN        non-white           NA
    ##  8 Alb-000…      20150530 PHILLIPS     FELIX        non-white           NA
    ##  9 Alb-000…      20150820 MCGUIRE      ROBERT       non-white           NA
    ## 10 Alb-000…      20160601 BOYER        TIFFANY      non-white           NA
    ## # ... with 550 more rows, and 8 more variables: victim_sex <fct>,
    ## #   city <chr>, state <chr>, lat <dbl>, lon <dbl>, disposition <chr>,
    ## #   city_state <chr>, resolved <dbl>
…
